[gd_scene load_steps=5 format=2]

[ext_resource path="res://assets/image/ic_1/ic_1_2.png" type="Texture" id=1]
[ext_resource path="res://script/IcPart.gd" type="Script" id=2]

[sub_resource type="Animation" id=1]
resource_name = "near"
length = 4.0
loop = true
tracks/0/type = "value"
tracks/0/path = NodePath("ColorRect:modulate")
tracks/0/interp = 1
tracks/0/loop_wrap = true
tracks/0/imported = false
tracks/0/enabled = true
tracks/0/keys = {
"times": PoolRealArray( 0, 2, 4 ),
"transitions": PoolRealArray( 1, 1, 1 ),
"update": 0,
"values": [ Color( 1, 1, 1, 0.490196 ), Color( 1, 1, 1, 0 ), Color( 1, 1, 1, 0.490196 ) ]
}

[sub_resource type="Animation" id=2]
resource_name = "selected"
length = 4.0
loop = true
tracks/0/type = "value"
tracks/0/path = NodePath("ColorRect:modulate")
tracks/0/interp = 1
tracks/0/loop_wrap = true
tracks/0/imported = false
tracks/0/enabled = true
tracks/0/keys = {
"times": PoolRealArray( 0, 2, 4 ),
"transitions": PoolRealArray( 1, 1, 1 ),
"update": 0,
"values": [ Color( 1, 1, 1, 0 ), Color( 1, 1, 1, 0.509804 ), Color( 1, 1, 1, 0 ) ]
}

[node name="IcPart" type="TextureRect" groups=[
"icon_group",
]]
margin_right = 40.0
margin_bottom = 40.0
mouse_filter = 2
texture = ExtResource( 1 )
script = ExtResource( 2 )
__meta__ = {
"_edit_use_anchors_": false
}

[node name="ColorRect" type="ColorRect" parent="."]
modulate = Color( 1, 1, 1, 0 )
anchor_right = 1.0
anchor_bottom = 1.0
margin_left = 4.0
margin_top = 4.0
margin_right = -4.0
margin_bottom = -4.0
mouse_filter = 2
__meta__ = {
"_edit_use_anchors_": false
}

[node name="AnimationPlayer" type="AnimationPlayer" parent="."]
playback_speed = 4.0
anims/near = SubResource( 1 )
anims/selected = SubResource( 2 )
