[gd_scene load_steps=5 format=2]

[ext_resource path="res://script/Main.gd" type="Script" id=1]
[ext_resource path="res://Levels.tscn" type="PackedScene" id=2]
[ext_resource path="res://Game.tscn" type="PackedScene" id=3]
[ext_resource path="res://Start.tscn" type="PackedScene" id=4]

[node name="Main" type="Control"]
anchor_right = 1.0
anchor_bottom = 1.0
script = ExtResource( 1 )
__meta__ = {
"_edit_use_anchors_": false
}

[node name="Game" parent="." instance=ExtResource( 3 )]

[node name="Levels" parent="." instance=ExtResource( 2 )]

[node name="Start" parent="." instance=ExtResource( 4 )]
